<?xml version="1.0" encoding="UTF-8" standalone="no"?>
<!-- Created with Inkscape (http://www.inkscape.org/) -->

<svg
   xmlns:dc="http://purl.org/dc/elements/1.1/"
   xmlns:cc="http://creativecommons.org/ns#"
   xmlns:rdf="http://www.w3.org/1999/02/22-rdf-syntax-ns#"
   xmlns:svg="http://www.w3.org/2000/svg"
   xmlns="http://www.w3.org/2000/svg"
   xmlns:sodipodi="http://sodipodi.sourceforge.net/DTD/sodipodi-0.dtd"
   xmlns:inkscape="http://www.inkscape.org/namespaces/inkscape"
   width="85.901863mm"
   height="55.873863mm"
   viewBox="0 0 673.22835 0"
   id="svg2"
   version="1.1"
   inkscape:version="0.91 r13725"
   sodipodi:docname="Chaine_de_transmission_de_puissance_de_la_motorisation_de_la_tourelle.svg">
  <sodipodi:namedview
     id="base"
     pagecolor="#ffffff"
     bordercolor="#666666"
     borderopacity="1.0"
     inkscape:pageopacity="0.0"
     inkscape:pageshadow="2"
     inkscape:zoom="0.19430964"
     inkscape:cx="856.14956"
     inkscape:cy="-1241.2209"
     inkscape:document-units="px"
     inkscape:current-layer="layer1"
     showgrid="false"
     inkscape:window-width="1362"
     inkscape:window-height="747"
     inkscape:window-x="0"
     inkscape:window-y="17"
     inkscape:window-maximized="0"
     inkscape:showpageshadow="false"
     inkscape:snap-grids="true"
     inkscape:snap-midpoints="true"
     showguides="false" />
  <defs
     id="defs4" />
  <metadata
     id="metadata7">
    <rdf:RDF>
      <cc:Work
         rdf:about="">
        <dc:format>image/svg+xml</dc:format>
        <dc:type
           rdf:resource="http://purl.org/dc/dcmitype/StillImage" />
        <dc:title />
        <dc:creator>
          <cc:Agent>
            <dc:title>B.Noury</dc:title>
          </cc:Agent>
        </dc:creator>
        <cc:license
           rdf:resource="http://creativecommons.org/licenses/by-nc-nd/3.0/" />
      </cc:Work>
      <cc:License
         rdf:about="http://creativecommons.org/licenses/by-nc-nd/3.0/">
        <cc:permits
           rdf:resource="http://creativecommons.org/ns#Reproduction" />
        <cc:permits
           rdf:resource="http://creativecommons.org/ns#Distribution" />
        <cc:requires
           rdf:resource="http://creativecommons.org/ns#Notice" />
        <cc:requires
           rdf:resource="http://creativecommons.org/ns#Attribution" />
        <cc:prohibits
           rdf:resource="http://creativecommons.org/ns#CommercialUse" />
      </cc:License>
    </rdf:RDF>
  </metadata>
  <g
     transform="translate(-28.929411,-945.88798)"
     id="layer1"
     inkscape:groupmode="layer"
     inkscape:label="Calque 1">
    <path
       style="fill:none;fill-rule:evenodd;stroke:#000000;stroke-width:1px;stroke-linecap:butt;stroke-linejoin:miter;stroke-opacity:1"
       d="M 108.36328,1048.299 54.181638,994.11741"
       id="path4458"
       inkscape:connector-curvature="0" />
    <path
       style="fill:none;fill-rule:evenodd;stroke:#000000;stroke-width:1px;stroke-linecap:butt;stroke-linejoin:miter;stroke-opacity:1"
       d="m 216.43987,1004.7244 33.00947,-19.05803"
       id="path4456"
       inkscape:connector-curvature="0" />
    <g
       transform="translate(107.52902,1048.0137)"
       inkscape:label="Gear24"
       id="g3426">
      <circle
         r="10"
         cy="0"
         cx="0"
         style="fill:#ffffff;stroke:#000000;stroke-width:1"
         id="path3430" />
      <path
         d="m 0,-78.099609 c -40.893207,0 -78.099609,37.206402 -78.099609,78.099609 0,40.893207 37.206402,78.099609 78.099609,78.099609 C 40.893207,78.099609 78.099609,40.893207 78.099609,0 78.099609,-40.893207 40.893207,-78.099609 0,-78.099609 Z"
         id="path3451"
         style="fill:none;stroke:#000000;stroke-width:1;stroke-miterlimit:4;stroke-dasharray:none;stroke-dashoffset:0"
         inkscape:original="M 0 -10 A 10 10 0 0 0 -10 0 A 10 10 0 0 0 0 10 A 10 10 0 0 0 10 0 A 10 10 0 0 0 0 -10 z "
         inkscape:radius="68.100273"
         sodipodi:type="inkscape:offset" />
      <text
         xml:space="preserve"
         style="font-style:normal;font-variant:normal;font-weight:normal;font-stretch:normal;font-size:12.5px;line-height:125%;font-family:'Linux Libertine O';-inkscape-font-specification:'Linux Libertine O, Normal';text-align:start;letter-spacing:0px;word-spacing:0px;writing-mode:lr-tb;text-anchor:start;fill:#000000;fill-opacity:1;stroke:none;stroke-width:1px;stroke-linecap:butt;stroke-linejoin:miter;stroke-opacity:1"
         x="100.68202"
         y="-57.512547"
         id="text4563"
         sodipodi:linespacing="125%"><tspan
           sodipodi:role="line"
           id="tspan4565"
           x="100.68202"
           y="-57.512547" /></text>
      <path
         style="fill:none;fill-rule:evenodd;stroke:#000000;stroke-width:1px;stroke-linecap:butt;stroke-linejoin:miter;stroke-opacity:1"
         d="m 39.783071,65.040609 11.46715,19.86168 25.8315,0"
         id="path4567"
         inkscape:connector-curvature="0" />
      <path
         style="fill:none;fill-rule:evenodd;stroke:#000000;stroke-width:1px;stroke-linecap:butt;stroke-linejoin:miter;stroke-opacity:1"
         d="m 89.497719,-77.109831 -9.289968,-14.804852 -87.7296018,0"
         id="path4569"
         inkscape:connector-curvature="0"
         sodipodi:nodetypes="ccc" />
      <path
         style="fill:none;fill-rule:evenodd;stroke:#000000;stroke-width:1px;stroke-linecap:butt;stroke-linejoin:miter;stroke-opacity:1"
         d="m 175.59882,-11.583802 18.85203,-18.852036 16.0141,0"
         id="path4571"
         inkscape:connector-curvature="0" />
      <text
         xml:space="preserve"
         style="font-style:normal;font-variant:normal;font-weight:normal;font-stretch:normal;font-size:12.5px;line-height:125%;font-family:'Linux Libertine O';-inkscape-font-specification:'Linux Libertine O, Normal';text-align:start;letter-spacing:0px;word-spacing:0px;writing-mode:lr-tb;text-anchor:start;fill:#000000;fill-opacity:1;stroke:none;stroke-width:1px;stroke-linecap:butt;stroke-linejoin:miter;stroke-opacity:1"
         x="53.567368"
         y="82.068253"
         id="text4573"
         sodipodi:linespacing="125%"><tspan
           sodipodi:role="line"
           id="tspan4575"
           x="53.567368"
           y="82.068253">tourelle 1</tspan></text>
      <text
         xml:space="preserve"
         style="font-style:normal;font-variant:normal;font-weight:normal;font-stretch:normal;font-size:12.5px;line-height:125%;font-family:'Linux Libertine O';-inkscape-font-specification:'Linux Libertine O, Normal';text-align:start;letter-spacing:0px;word-spacing:0px;writing-mode:lr-tb;text-anchor:start;fill:#000000;fill-opacity:1;stroke:none;stroke-width:1px;stroke-linecap:butt;stroke-linejoin:miter;stroke-opacity:1"
         x="175.68405"
         y="25.822628"
         id="text4577"
         sodipodi:linespacing="125%"><tspan
           sodipodi:role="line"
           id="tspan4579"
           x="175.68405"
           y="25.822628"></tspan></text>
    </g>
    <g
       id="g4286"
       transform="translate(216.40896,1004.6905)"
       style="stroke:#000000;stroke-width:1;stroke-miterlimit:4;stroke-dasharray:none;stroke-dashoffset:0">
      <circle
         id="path4266"
         style="fill:#ffffff;stroke:#000000;stroke-width:1;stroke-miterlimit:4;stroke-dasharray:none;stroke-dashoffset:0"
         cx="0"
         cy="0"
         r="10" />
      <g
         id="g4282"
         style="stroke:#000000;stroke-width:1;stroke-miterlimit:4;stroke-dasharray:none;stroke-dashoffset:0">
        <path
           d="m 0,-39.3125 c -20.584351,0 -39.3125,18.728149 -39.3125,39.3125 0,20.584351 18.728149,39.3125 39.3125,39.3125 C 20.584351,39.3125 39.3125,20.584351 39.3125,0 39.3125,-20.584351 20.584351,-39.3125 0,-39.3125 Z"
           id="path4280"
           style="fill:none;stroke:#000000;stroke-width:1;stroke-miterlimit:4;stroke-dasharray:none;stroke-dashoffset:0"
           inkscape:original="M 0 -10 A 10 10 0 0 0 -10 0 A 10 10 0 0 0 0 10 A 10 10 0 0 0 10 0 A 10 10 0 0 0 0 -10 z "
           inkscape:radius="29.313215"
           sodipodi:type="inkscape:offset" />
      </g>
    </g>
    <g
       transform="matrix(0,1,-1,0,1266.564,774.86362)"
       id="g4395-5">
      <path
         inkscape:connector-curvature="0"
         id="path4354-3"
         d="m 283.18597,1158.4434 15.81138,0 0,-10.1354 0,19.0547"
         style="fill:none;fill-rule:evenodd;stroke:#000000;stroke-width:1px;stroke-linecap:butt;stroke-linejoin:miter;stroke-opacity:1" />
      <path
         inkscape:connector-curvature="0"
         id="path4356-5"
         d="m 299.20006,1166.6027 4.68767,-4.6876"
         style="fill:none;fill-rule:evenodd;stroke:#000000;stroke-width:1px;stroke-linecap:round;stroke-linejoin:miter;stroke-opacity:1" />
      <path
         style="fill:none;fill-rule:evenodd;stroke:#000000;stroke-width:1px;stroke-linecap:round;stroke-linejoin:miter;stroke-opacity:1"
         d="m 299.20006,1162.6499 4.68767,-4.6876"
         id="path4373-6"
         inkscape:connector-curvature="0" />
      <path
         inkscape:connector-curvature="0"
         id="path4375-2"
         d="m 299.20006,1150.7913 4.68767,-4.6876"
         style="fill:none;fill-rule:evenodd;stroke:#000000;stroke-width:1px;stroke-linecap:round;stroke-linejoin:miter;stroke-opacity:1" />
      <path
         style="fill:none;fill-rule:evenodd;stroke:#000000;stroke-width:1px;stroke-linecap:round;stroke-linejoin:miter;stroke-opacity:1"
         d="m 299.20006,1154.7442 4.68767,-4.6876"
         id="path4377-9"
         inkscape:connector-curvature="0" />
      <path
         inkscape:connector-curvature="0"
         id="path4379-1"
         d="m 299.20006,1158.697 4.68767,-4.6876"
         style="fill:none;fill-rule:evenodd;stroke:#000000;stroke-width:1px;stroke-linecap:round;stroke-linejoin:miter;stroke-opacity:1" />
    </g>
    <g
       transform="matrix(0,1,-1,0,1374.9273,731.00229)"
       id="g4395-2">
      <path
         inkscape:connector-curvature="0"
         id="path4354-7"
         d="m 283.18597,1158.4434 15.81138,0 0,-10.1354 0,19.0547"
         style="fill:none;fill-rule:evenodd;stroke:#000000;stroke-width:1px;stroke-linecap:butt;stroke-linejoin:miter;stroke-opacity:1" />
      <path
         inkscape:connector-curvature="0"
         id="path4356-0"
         d="m 299.20006,1166.6027 4.68767,-4.6876"
         style="fill:none;fill-rule:evenodd;stroke:#000000;stroke-width:1px;stroke-linecap:round;stroke-linejoin:miter;stroke-opacity:1" />
      <path
         style="fill:none;fill-rule:evenodd;stroke:#000000;stroke-width:1px;stroke-linecap:round;stroke-linejoin:miter;stroke-opacity:1"
         d="m 299.20006,1162.6499 4.68767,-4.6876"
         id="path4373-9"
         inkscape:connector-curvature="0" />
      <path
         inkscape:connector-curvature="0"
         id="path4375-3"
         d="m 299.20006,1150.7913 4.68767,-4.6876"
         style="fill:none;fill-rule:evenodd;stroke:#000000;stroke-width:1px;stroke-linecap:round;stroke-linejoin:miter;stroke-opacity:1" />
      <path
         style="fill:none;fill-rule:evenodd;stroke:#000000;stroke-width:1px;stroke-linecap:round;stroke-linejoin:miter;stroke-opacity:1"
         d="m 299.20006,1154.7442 4.68767,-4.6876"
         id="path4377-6"
         inkscape:connector-curvature="0" />
      <path
         inkscape:connector-curvature="0"
         id="path4379-0"
         d="m 299.20006,1158.697 4.68767,-4.6876"
         style="fill:none;fill-rule:evenodd;stroke:#000000;stroke-width:1px;stroke-linecap:round;stroke-linejoin:miter;stroke-opacity:1" />
    </g>
    <g
       id="use4477"
       transform="translate(-359.78327,-39.731174)">
      <g
         id="g4481"
         transform="translate(351.90468,-21.081847)">
        <rect
           style="opacity:1;fill:#ffffff;fill-opacity:1;fill-rule:nonzero;stroke:#000000;stroke-width:1;stroke-linecap:round;stroke-linejoin:round;stroke-miterlimit:4;stroke-dasharray:none;stroke-dashoffset:0;stroke-opacity:1"
           id="rect4483"
           width="25.482689"
           height="81.159149"
           x="264.18121"
           y="1026.3755" />
        <path
           inkscape:connector-curvature="0"
           id="path4485"
           d="m 276.92256,1016.3755 0,90.4116"
           style="fill:none;fill-rule:evenodd;stroke:#000000;stroke-width:1;stroke-linecap:butt;stroke-linejoin:miter;stroke-miterlimit:4;stroke-dasharray:4, 2, 1, 2;stroke-dashoffset:0;stroke-opacity:1"
           sodipodi:nodetypes="cc" />
        <g
           transform="matrix(0.86296754,0,0,0.86296754,37.655742,154.45478)"
           id="g4487">
          <path
             style="fill:none;fill-rule:evenodd;stroke:#000000;stroke-width:1px;stroke-linecap:butt;stroke-linejoin:miter;stroke-opacity:1"
             d="m 264.48415,1063.513 25.07028,-18.6857"
             id="path4489"
             inkscape:connector-curvature="0"
             sodipodi:nodetypes="cc" />
          <path
             style="fill:none;fill-rule:evenodd;stroke:#000000;stroke-width:1px;stroke-linecap:butt;stroke-linejoin:miter;stroke-opacity:1"
             d="m 264.96658,1069.969 25.07028,-18.6857"
             id="path4491"
             inkscape:connector-curvature="0"
             sodipodi:nodetypes="cc" />
        </g>
      </g>
      <path
         style="fill:none;fill-rule:evenodd;stroke:#000000;stroke-width:1px;stroke-linecap:butt;stroke-linejoin:miter;stroke-opacity:1"
         d="m 628.82724,1086.4529 0,67.5375"
         id="path4493"
         inkscape:connector-curvature="0"
         sodipodi:nodetypes="cc" />
      <g
         id="g4511"
         transform="translate(351.90468,-44.875899)">
        <rect
           y="1138.9833"
           x="270.21252"
           height="38.920334"
           width="12.973445"
           id="rect4495"
           style="opacity:1;fill:none;fill-opacity:1;fill-rule:nonzero;stroke:#000000;stroke-width:1;stroke-linecap:round;stroke-linejoin:round;stroke-miterlimit:4;stroke-dasharray:none;stroke-dashoffset:0;stroke-opacity:1" />
        <g
           id="g4497">
          <path
             style="fill:none;fill-rule:evenodd;stroke:#000000;stroke-width:1px;stroke-linecap:butt;stroke-linejoin:miter;stroke-opacity:1"
             d="m 283.18597,1158.4434 15.81138,0 0,-10.1354 0,19.0547"
             id="path4499"
             inkscape:connector-curvature="0" />
          <path
             style="fill:none;fill-rule:evenodd;stroke:#000000;stroke-width:1px;stroke-linecap:round;stroke-linejoin:miter;stroke-opacity:1"
             d="m 299.20006,1166.6027 4.68767,-4.6876"
             id="path4501"
             inkscape:connector-curvature="0" />
          <path
             inkscape:connector-curvature="0"
             id="path4503"
             d="m 299.20006,1162.6499 4.68767,-4.6876"
             style="fill:none;fill-rule:evenodd;stroke:#000000;stroke-width:1px;stroke-linecap:round;stroke-linejoin:miter;stroke-opacity:1" />
          <path
             style="fill:none;fill-rule:evenodd;stroke:#000000;stroke-width:1px;stroke-linecap:round;stroke-linejoin:miter;stroke-opacity:1"
             d="m 299.20006,1150.7913 4.68767,-4.6876"
             id="path4505"
             inkscape:connector-curvature="0" />
          <path
             inkscape:connector-curvature="0"
             id="path4507"
             d="m 299.20006,1154.7442 4.68767,-4.6876"
             style="fill:none;fill-rule:evenodd;stroke:#000000;stroke-width:1px;stroke-linecap:round;stroke-linejoin:miter;stroke-opacity:1" />
          <path
             style="fill:none;fill-rule:evenodd;stroke:#000000;stroke-width:1px;stroke-linecap:round;stroke-linejoin:miter;stroke-opacity:1"
             d="m 299.20006,1158.697 4.68767,-4.6876"
             id="path4509"
             inkscape:connector-curvature="0" />
        </g>
      </g>
      <g
         id="g4531"
         transform="matrix(0.61134713,0,0,0.61134713,459.81298,442.64957)">
        <g
           id="g4549"
           transform="translate(0,0.70456709)">
          <circle
             style="opacity:1;fill:#ffffff;fill-opacity:1;fill-rule:nonzero;stroke:#000000;stroke-width:0.7634486;stroke-linecap:round;stroke-linejoin:round;stroke-miterlimit:4;stroke-dasharray:none;stroke-dashoffset:0;stroke-opacity:1"
             id="path4529"
             cx="276.46201"
             cy="1187.0729"
             r="23.832842" />
          <g
             transform="translate(-1.1849791,-17.905284)"
             id="text4525"
             style="font-style:normal;font-variant:normal;font-weight:normal;font-stretch:normal;font-size:12.5px;line-height:125%;font-family:'Linux Libertine O';-inkscape-font-specification:'Linux Libertine O, Normal';text-align:start;letter-spacing:0px;word-spacing:0px;writing-mode:lr-tb;text-anchor:start;fill:#000000;fill-opacity:1;stroke:none;stroke-width:1px;stroke-linecap:butt;stroke-linejoin:miter;stroke-opacity:1">
            <path
               inkscape:connector-curvature="0"
               id="path4537"
               d="m 267.09592,1207.4953 c 0.0625,1.0125 0.025,1.025 -0.7875,1.0625 -0.075,0.075 -0.075,0.3375 0,0.4125 0.4625,-0.013 0.9625,-0.025 1.3375,-0.025 0.375,0 0.9375,0.012 1.3625,0.025 0.075,-0.075 0.075,-0.3375 0,-0.4125 -0.85,-0.038 -0.9,-0.088 -0.9625,-1.125 l -0.375,-5.2625 c -0.05,-0.675 0.0125,-0.85 0.8625,-0.9 0.075,-0.075 0.075,-0.3375 0,-0.4125 l -1.6375,0.025 -2.65,6.3375 c -0.05,0.125 -0.0875,0.175 -0.1125,0.175 -0.025,0 -0.0625,-0.062 -0.1,-0.1625 l -2.5625,-6.35 -1.8125,-0.025 c -0.075,0.075 -0.075,0.3375 0,0.4125 0.8625,0.05 0.9375,0.075 0.85,1.0125 l -0.5125,5.15 c -0.0625,0.75 -0.2125,1.0625 -0.925,1.125 -0.075,0.075 -0.075,0.3375 0,0.4125 0.375,-0.013 0.775,-0.025 1.075,-0.025 0.3,0 0.8,0.012 1.175,0.025 0.075,-0.075 0.075,-0.3375 0,-0.4125 -0.825,-0.062 -0.9,-0.4375 -0.825,-1.15 l 0.475,-5.0125 0.025,0 2.5875,6.4875 c 0.025,0.1 0.1125,0.1875 0.1875,0.1875 0.075,0 0.125,-0.088 0.175,-0.1875 l 2.8125,-6.6125 0.025,0 0.3125,5.225 z" />
            <path
               inkscape:connector-curvature="0"
               id="path4539"
               d="m 269.83147,1206.3828 c 0,1.275 0.85,2.6875 2.625,2.6875 0.8,0 1.4,-0.275 1.825,-0.7 0.5625,-0.5375 0.825,-1.325 0.825,-2.1 0,-1.3 -0.7125,-2.8125 -2.625,-2.8125 -0.825,0 -1.5125,0.3375 -1.9625,0.875 -0.45,0.5375 -0.6875,1.2625 -0.6875,2.05 z m 2.4625,-2.4875 c 1.075,0 1.7375,0.975 1.7375,2.775 0,1.575 -0.8125,1.9625 -1.4,1.9625 -1.3,0 -1.725,-1.575 -1.725,-2.5375 0,-1.0875 0.2625,-2.2 1.3875,-2.2 z" />
            <path
               inkscape:connector-curvature="0"
               id="path4541"
               d="m 276.1553,1203.5828 c -0.175,0 -0.225,0.15 -0.225,0.25 l 0,0.1625 c 0,0.062 0.0125,0.075 0.0625,0.075 l 0.7375,0 0,3.7625 c 0,0.8875 0.3875,1.2375 0.9625,1.2375 0.575,0 1.2,-0.275 1.6875,-0.825 -0.025,-0.125 -0.1,-0.2 -0.225,-0.2125 -0.325,0.25 -0.7,0.35 -1.025,0.35 -0.3375,0 -0.4125,-0.375 -0.4125,-1.15 l 0,-3.1625 1.3,0 c 0.125,0 0.3,-0.05 0.3,-0.1625 l 0,-0.25 c 0,-0.05 -0.0375,-0.075 -0.1,-0.075 l -1.5,0 0,-0.4875 c 0,-0.8125 0.05,-1.3125 0.05,-1.3125 0,-0.075 -0.0375,-0.1 -0.1,-0.1 -0.0625,0 -0.1625,0.05 -0.275,0.1125 -0.15,0.075 -0.275,0.125 -0.425,0.175 -0.15,0.038 -0.275,0.088 -0.275,0.1625 0,0.15 0.0375,0.062 0.0375,1.45 l -0.575,0 z" />
            <path
               inkscape:connector-curvature="0"
               id="path4543"
               d="m 281.12288,1205.4203 c 0.2375,-1.4125 1.1125,-1.525 1.4125,-1.525 0.475,0 1.0375,0.2625 1.0375,1.3125 0,0.1125 -0.05,0.175 -0.1875,0.175 l -2.2625,0.037 z m 3.275,2.3625 c -0.4625,0.475 -0.825,0.675 -1.55,0.675 -0.45,0 -0.975,-0.2625 -1.3625,-0.9 -0.25,-0.4125 -0.4,-0.9875 -0.4,-1.7125 l 3.325,0.025 c 0.15,0 0.2375,-0.075 0.2375,-0.2125 0,-1.05 -0.375,-2.175 -2.1125,-2.175 -1.0875,0 -2.5,1.0375 -2.5,2.9375 0,0.7 0.175,1.375 0.5875,1.85 0.425,0.5 1.0125,0.8 1.9125,0.8 0.95,0 1.625,-0.4375 2.125,-1.0875 -0.0375,-0.125 -0.1125,-0.1875 -0.2625,-0.2 z" />
            <path
               inkscape:connector-curvature="0"
               id="path4545"
               d="m 287.8762,1209.0703 c 0.4875,0 1.075,-0.25 1.6875,-0.75 0.0625,-0.05 0.175,-0.075 0.1875,0.012 0.025,0.325 0.1375,0.7375 0.1375,0.7375 0.1,0.037 0.15,0.037 0.2375,0 0.275,-0.225 0.7125,-0.4125 1.475,-0.5 0.075,-0.075 0.075,-0.2625 0,-0.3375 -0.8,-0.062 -0.9125,-0.3 -0.9125,-0.9125 l 0,-2.4 c 0,-0.375 0.05,-1.2875 0.05,-1.2875 0,-0.038 -0.0375,-0.075 -0.1,-0.075 -0.0625,0.013 -0.25,0.025 -0.4375,0.025 -0.4,0 -0.85,-0.012 -1.275,-0.025 -0.075,0.075 -0.075,0.3375 0,0.4125 0.6125,0.038 0.775,0.1875 0.775,1.0125 l 0,2.4125 c 0,0.2375 -0.025,0.3375 -0.2,0.4875 -0.4625,0.4 -0.9375,0.6 -1.25,0.6 -0.375,0 -1,-0.175 -1,-1.2875 l 0,-2.275 c 0,-0.375 0.05,-1.2875 0.05,-1.2875 0,-0.038 -0.0375,-0.075 -0.1,-0.075 -0.0625,0.013 -0.25,0.025 -0.4375,0.025 -0.4,0 -0.85,-0.012 -1.275,-0.025 -0.075,0.075 -0.075,0.3375 0,0.4125 0.6,0.05 0.775,0.1875 0.775,1 l 0,2.4 c 0,0.8625 0.375,1.7 1.6125,1.7 z" />
            <path
               inkscape:connector-curvature="0"
               id="path4547"
               d="m 294.00432,1204.4703 c -0.025,-0.5 -0.05,-0.8125 -0.1,-0.95 -0.0375,-0.05 -0.05,-0.1 -0.15,-0.1 -0.35,0.1375 -0.675,0.25 -1.5375,0.3625 -0.025,0.075 0,0.275 0.025,0.35 0.675,0.062 0.8125,0.125 0.8125,0.85 l 0,2.4375 c 0,1.0375 -0.15,1.0875 -0.925,1.1375 -0.075,0.075 -0.075,0.3375 0,0.4125 0.4375,-0.013 0.925,-0.025 1.425,-0.025 0.5,0 1.075,0.012 1.5125,0.025 0.075,-0.075 0.075,-0.3375 0,-0.4125 -0.875,-0.062 -1.025,-0.1 -1.025,-1.1375 l 0,-1.7375 c 0,-0.325 0.15,-0.6125 0.3,-0.8375 0.1375,-0.2 0.425,-0.6125 0.575,-0.6125 0.1125,0 0.225,0.037 0.3125,0.1625 0.1,0.125 0.2375,0.2875 0.4625,0.2875 0.3,0 0.5875,-0.3125 0.5875,-0.625 0,-0.2375 -0.225,-0.6 -0.75,-0.6 -0.5875,0 -1.1,0.55 -1.3875,1.0375 -0.075,0.1375 -0.1375,0.037 -0.1375,-0.025 z" />
          </g>
        </g>
      </g>
    </g>
    <text
       xml:space="preserve"
       style="font-style:normal;font-variant:normal;font-weight:normal;font-stretch:normal;font-size:12.5px;line-height:125%;font-family:'Linux Libertine O';-inkscape-font-specification:'Linux Libertine O, Normal';text-align:start;letter-spacing:0px;word-spacing:0px;writing-mode:lr-tb;text-anchor:start;fill:#000000;fill-opacity:1;stroke:none;stroke-width:1px;stroke-linecap:butt;stroke-linejoin:miter;stroke-opacity:1"
       x="302.90945"
       y="1016.5477"
       id="text4585"
       sodipodi:linespacing="125%"><tspan
         sodipodi:role="line"
         id="tspan4587"
         x="302.90945"
         y="1016.5477">Vis 21</tspan></text>
    <text
       xml:space="preserve"
       style="font-style:normal;font-variant:normal;font-weight:normal;font-stretch:normal;font-size:12.5px;line-height:125%;font-family:'Linux Libertine O';-inkscape-font-specification:'Linux Libertine O, Normal';text-align:start;letter-spacing:0px;word-spacing:0px;writing-mode:lr-tb;text-anchor:start;fill:#000000;fill-opacity:1;stroke:none;stroke-width:1px;stroke-linecap:butt;stroke-linejoin:miter;stroke-opacity:1"
       x="100.43718"
       y="954.61298"
       id="text4589"
       sodipodi:linespacing="125%"><tspan
         sodipodi:role="line"
         id="tspan4591"
         x="100.43718"
         y="954.61298">Roue intermédiaire 22</tspan></text>
  </g>
</svg>
